  ,text
0 ,b'@fakerchlfreeman I relate'
1 ,b'@deIalune IS HELD LIKE A FIELDMOUSE IS HELD SAFE AND WARM INSIDE A TULIP AFTER FEASTING ON POLLEN'
2 ,b'LRT I BURST INTO TEARS OVER FIELDMOUSE QINGHUA AAAHH!!!!! BABY BOY BABY BOY!!!!'
3 ,"b'Field Mouse - ""Heart of Gold""  (official video - 2019)  #FieldMouse #IndieRock https://t.co/MYXqEiIw2H'"
4 ,"b'#mouseart #fieldmouse #brexit \n@cabinetofficeuk #Mice rarely opine about politics, but the #DaVinci mouse studio ventured an etching (or gnawing) on  the #uk without Wales, Scotland, and Northern Ireland. That it might look like a flappy-eared dog is, of course, pure coincidence https://t.co/T67qSEqmxV'"
5 ,b'I love the @RSPCA_official so much! \n\nLast night I rescued a fieldmouse with a broken leg and today they arranged for me to drop the little creature off at my local vet. \n\nHappy ending! #RSPCA https://t.co/gLaBnzjSMP'
6 ,b'I was today years old when I found out that Mickey Mouse has a Sister named Felicity/Amelia Fieldmouse https://t.co/YHHEdX6WBt'
7 ,"b'This is our Jeremy, who just brought us a poor little fieldmouse.\xf0\x9f\x98\x95\xf0\x9f\x90\xad He seems quite proud of himself - no remorse at all. Sad. #naturecanbecruel  @myleftfang @ParrotStanley @WeatherDog3 @RatBoyCurry https://t.co/KXKF4I5kh9'"
8 ,b'@Julia_Wertz I\xe2\x80\x99m pretty sure this is why the fieldmouse in Alice in Wonderland (or whichever in the series it is) is so sleepy all the time'
9 ,"b""#fieldmouse 'Hop it, mate!' https://t.co/CkjmFAfpfC"""
10,b'#fieldmouse #countryside #natureindoors #sharingcomfort\nThere comes a point when these guys want to share your creature comforts and when you just have to hustle them on https://t.co/Dd82ImqIcp'
11,b'@AdamWagner1 I came across a fantastic picture of a fieldmouse sleeping in a tulip after a pollen feast. It helped me when I stopped myself thinking in metaphors.'
12,b'Source: https://t.co/iPFYTjHbJE\nCredit: Chloe Bray https://t.co/HKQj71WVRy'
13,b'Whats Good - Sept 7th - #SOFTKILL #FIELDMOUSE #BASEMENTREVOLVER #STUDIOELECTROPHONIQUE #HANAVU - https://t.co/O5iopuCT2k https://t.co/81qscaXXgE'
14,"b'#Fieldmouse #mousehealth \nThis little guy has improved, but his injury still needs to be monitored. It has been sprayed with a powder #antiseptic, the only thing I find works. https://t.co/YIUs7xesfj'"
15,"b""@PeterPumer That's alright, I'm hung like a fieldmouse on a frosty morning."""
16,b'@BlatentLie Fieldmouse for tea?'
17,"b""Are you going to @SPXcomics? Fieldmouse Press is! And we'll be doing a lot this weekend, including meeting with artists, running panels, and passing out zines and cards! Here's our panel schedule and contact info:  https://t.co/1DEyKG92vq"""
18,b'@TheDCJunkyard Blue'
19,"b'@KeefJudge @PeopleOfUK Never! Cityrat, me, not a fieldmouse. \xf0\x9f\x98\x89'"
20,b'Message from wife \xe2\x80\x9cMaisie\xe2\x80\x99s just brought someone home for dinner. Alas it died during the bringing home phase\xe2\x80\x9d another fieldmouse bites the dust #KillerQueenStrikesAgain https://t.co/KlsRG8U54f'
21,b'Was hoping for hedgehog; got fieldmouse! https://t.co/sgS622vUHv'
22,"b'I was really happy to create the logo for @FieldmousePress, a new nonprofit publishing company formed by 4 fantastic comics critics. Follow, and check out their plans! https://t.co/gnGQ6r6MAZ'"
23,b'a citrus friend \xf0\x9f\x8d\x8b https://t.co/cuUC4h1X03'
24,"b'\xe2\x80\x9c The fieldmouse is fast, but the owl sees at night \xe2\x80\x9c'"
25,"b'@Lone_Horse @PepetheHutt @MurreyJudith @1Howiedubz @Nasty_1__ I understand, Fieldmouse. \xe2\x9d\xa4\xef\xb8\x8f'"
26,"b'@Lone_Horse @PepetheHutt @MurreyJudith @1Howiedubz @Nasty_1__ Good capture of a memory, Fieldmouse.'"
27,b'Thanks @comicsbeat for the feature! \n\nhttps://t.co/UOc8HhMbUj'
28,b'@Fieldmouse__ Omg u r so cute'
29,"b'Longtime comics critics announce FIELDMOUSE PRESS, a new nonprofit publisher - Comics Beat https://t.co/9E78lHFUmC https://t.co/kPBGWqqRHs'"
30,"b'Longtime comics critics announce FIELDMOUSE PRESS, a new nonprofit\xc2\xa0publisher https://t.co/AHbHYio61u https://t.co/UEPJoUMtfI'"
31,b'I took this selfie today and honestly what a mood https://t.co/lk9m4mLCnd'
32,b'Yesterday we had a little visitor at the barn. He hung around for a bit before continuing his venture out in the fields. \xf0\x9f\x90\xad\xf0\x9f\x8c\xb1#fieldmouse #thebarn #bucks #highwycombe #designagency #marketingagency #milestonecreative #WildlifeWednesday https://t.co/cka0G5m1aY'
33,b'Announcing the Formation of Fieldmouse Press https://t.co/PR9lMbIrSA'
34,b'@Fieldmouse__ I love you \xf0\x9f\x98\xad\xf0\x9f\x98\xad\xf0\x9f\x98\xad LIL LIL LIL \xf0\x9f\x92\x93'
35,"b'@sequentialstate @RobCloughHighLo @FieldmousePress @CarolynCNowak In the long term, as I\xe2\x80\x99ll be taking over editorial duties at SOLRAD when Fieldmouse Press launches it in January, I\xe2\x80\x99ll be ceasing all YCE operations then. I plan on keeping the site up and running for as long as it makes sense -- there\xe2\x80\x99s too much amazing writing there to lose.'"
36,"b'@sequentialstate @RobCloughHighLo @FieldmousePress So yeah, I like to think of this as a big deal for the small press comics community. I\xe2\x80\x99m excited to be working with Alex, Rob, and Ryan as we kick off FIELDMOUSE PRESS. Creating a non-profit to support the comics arts has been a labor of love, for sure.'"
37,"b""Not sure if you've seen this yet, but, after a few months of hard work, @sequentialstate, @RobCloughHighLo, Ryan Carey, and I have announced our new non-profit publishing venture, FIELDMOUSE PRESS (@FieldmousePress) \nhttps://t.co/FPHk8j2Gva https://t.co/rCC8o6uP8e"""
38,b'Announcing the Formation of Fieldmouse Press - Comics Bulletin https://t.co/hzXZqKfWto'
39,b'Here is a new nonprofit publishing concern that will be launching a comics-and-writing-on-comics site in early 2020... some veteran comics crit names involved: https://t.co/fbf4o9KV1x'
40,b'Look what just flew in #dragonfly #fieldmouse #mice #mouse #fly #summer #art #goldbrooch #gold #goldcharm https://t.co/AtvH8HZHbS'
41,b'.@FieldmousePress is a 501(c)(3) charity. You can find our information on the IRS website here --- https://t.co/3F3Kn9BMGV'
42,"b""Here's the big announcement: the formation of Fieldmouse Press! https://t.co/RjBOh9zceQ"""
43,"b'I have a very important announcement today at Sequential State - the formation of Fieldmouse Press (@fieldmousepress), a new nonprofit press run by @danielelkin, @RobCloughHighLo Ryan Carey and me ---\n\nhttps://t.co/aPmyb2bJFO'"
44,b'@AmberCadaverous Wow honestly I\xe2\x80\x99m deceased'
45,b'list of Wild mammals recently seen in my garden paddock #Yorkshire England \n\nCommon #Shrew\n#Fieldmouse / #Woodmouse\n#HarvestMouse\n#Housemouse\n#FieldVole\n#Mole\n#Stoat\n#Weasel\nBrown #Rat\n#Hedgehog\nGrey #Squirrel\n#Rabbit\nRed #Fox\n#RoeDeer \n\nHare &amp; Badger within 500m'
46,"b""@HedgehogCabin @MichaelFoley_1 There's still food and water going out each night, and a very comfortable hog home just waiting for a visitor. In the meantime, if you hear about a Fieldmouse obesity epidemic in the North West, you know the cause \xf0\x9f\xa4\xa3"""
47,b'quite just right at the trim trite truth letter; the sudden spluttered petulance of some capItalIsed Middle; a word as cunningly hidden in \nits maze of confused drapery as a fieldmouse in a nest of coloured ribbons: that ab-surdly bullsfooted bee declaring with an even plainer'
