   ,text
0  ,b'We couldn\xe2\x80\x99t be more excited to pick up these ultra lightweight mice (Glorious Model O-) for our new facility.  Excellent gaming peripherals by an equally excellent company! @GloriousPCGR  #newkatsu https://t.co/IslwuetDIV'
1  ,"b""@itsLashes After going through 3 different mice that had all the side buttons, I bought a $20 mouse off Amazon and honestly love it. PICTEK gaming mouse is what you'd search for."""
2  ,"b""@CrucialMemory Right now I'm using a wireless mouse from @VicTsing_ \n\nSo far it's held up comparative to the @AnkerOfficial and @senteymkt wired gaming mice I was using before.\n\nWhat can I say? Price point matters, and a ~$40+ mouse? Not on my earnings."""
3  ,b'@FF_MuTeX @finalmouse Ok tbh with you return both of those shitty old mice and buy a glorious model O or a Air58 from a reseller. Or a gpro wireless. These are arguably t3 gaming mice rn'
4  ,b'Top 10 Gaming Mice 2019 https://t.co/PkPx8riP7I https://t.co/0nrEkKy7AP'
5  ,b'@ZOWIEbyBenQUSA I have giant hands and I heard your gaming mice were the best in the game for people like me... But idk which one would be best for me...'
6  ,b'@Bosslogic The current trend in gaming mice is really getting to these folks too https://t.co/PRWPeAkq6D'
7  ,"b'Wireless Gaming Mouse, AFUNTA 6 Buttons 2000 DPI Full Size Game Mice with USB Transmitter for PC Laptop Desk... #White+Yellow https://t.co/S1jIEIGDpR'"
8  ,"b'@eberantony Eber, I own the MX 2 in white and as someone whose 6\xe2\x80\x994\xe2\x80\x9d with large hands I\xe2\x80\x99d say that the left would be more comfortable for my grip! I use the MX 2 for productivity and a Razer Naga MMO 2014 chroma for gaming \xf0\x9f\xa5\xb0 two of my favorite mice'"
9  ,b'Check out Ergonomic Wired Gaming Mouse 7 Button 5500 DPI LED USB Computer Mouse Gamer Mice #iMice https://t.co/0zUvz7E9t8 via @eBay'
10 ,"b'Philips TVs, Braun electric shavers, Logitech gaming mice, Fitbits, and more on sale for Sept. 10 in the UK https://t.co/DyMBFCSViD #socialmedia'"
11 ,"b'Philips TVs, Braun electric shavers, Logitech gaming mice, Fitbits, and more on sale for Sept. 10 in the UK https://t.co/2RCJ8Ggk6H https://t.co/ioPakJEJEM'"
12 ,"b""\xf0\x9f\x92\xa6 Philips TVs, Braun electric shavers, Logitech gaming mice, Fitbits, and more on sale for Sept. 10 in the UK: This is your best shot to grab a bargain on a wide range of top brands, so don't miss out. Seriously, a lot of these deals won't be around for\xe2\x80\xa6 https://t.co/sfG6TiRhQE https://t.co/Ybqfq1mrN1"""
13 ,"b'Philips TVs, Braun electric shavers, Logitech gaming mice, Fitbits, and more on sale for Sept. 10 in the UK https://t.co/spVrmMntUv'"
14 ,"b'Philips TVs, Braun electric shavers, Logitech gaming mice, Fitbits, and more on sale for Sept. 10 in the UK\nhttps://t.co/lBvYKTLaci https://t.co/23njnRsO2g'"
15 ,"b'Philips TVs, Braun electric shavers, Logitech gaming mice, Fitbits, and more on sale for Sept. 10 in the UK https://t.co/eJ41AaYyWd https://t.co/6DWNWD9v2f'"
16 ,"b'Philips TVs, Braun electric shavers, Logitech gaming mice, Fitbits, and more on sale for Sept. 10 in the UK https://t.co/rlLDZr4Cn3 https://t.co/KH798pOIOY'"
17 ,"b'Philips TVs, Braun electric shavers, Logitech gaming mice, Fitbits, and more on sale for Sept. 10 in the UK https://t.co/Q39cRwyrpY'"
18 ,"b'Philips TVs, Braun electric shavers, Logitech gaming mice, Fitbits, and more on sale for Sept. 10 in the UK https://t.co/GOuv1OXeLh'"
19 ,"b'Philips TVs, Braun electric shavers, Logitech gaming mice, Fitbits, and more on sale for Sept. 10 in the UK https://t.co/8x8BLrxUEm'"
20 ,"b'Philips TVs, Braun electric shavers, Logitech gaming mice, Fitbits, and more on sale for Sept. 10 in the UK https://t.co/hQE1Mofdzv'"
21 ,"b'Philips TVs, Braun electric shavers, Logitech gaming mice, Fitbits, and more on sale for Sept. 10 in the UK https://t.co/1P7OKQP5Be'"
22 ,"b'Philips TVs, Braun electric shavers, Logitech gaming mice, Fitbits, and more on sale for Sept. 10 in the UK https://t.co/TFFcctw82J https://t.co/Bld5G643zX'"
23 ,"b'Philips TVs, Braun electric shavers, Logitech gaming mice, Fitbits, and more on sale for Sept. 10 in the UK https://t.co/q7HkYfrRbg'"
24 ,"b'Philips TVs, Braun electric shavers, Logitech gaming mice, Fitbits, and more on sale for Sept. 10 in the UK https://t.co/98SRULjq1V'"
25 ,"b'Philips TVs, Braun electric shavers, Logitech gaming mice, Fitbits, and more on sale for Sept. 10 in the UK https://t.co/8kt9a6gcyC'"
26 ,"b'Philips TVs, Braun electric shavers, Logitech gaming mice, Fitbits, and more on sale for Sept. 10 in the UK https://t.co/nOmyN2YlKF'"
27 ,b'A closer look at the prizes:\n\nM4 ultra-light gaming mouse: https://t.co/K0XTVhLTlO\n\nK4 TKL keyboard:\nhttps://t.co/ZwWcr1BtWH\n\nThe winner will be announced on September 27th. GLHF!'
28 ,"b'Philips TVs, Braun electric shavers, Logitech gaming mice, Fitbits, and more on sale for Sept. 10 in the UK https://t.co/ZCdRWHTRMI'"
29 ,"b'Philips TVs, Braun electric shavers, Logitech gaming mice, Fitbits, and more on sale for Sept. 10 in the UK https://t.co/DynETDtL3r'"
30 ,"b'Philips TVs, Braun electric shavers, Logitech gaming mice, Fitbits, and more on sale for Sept. 10 in the UK\n\n https://t.co/SaicdUUDqC\n\n#Tech #Technews #Ranzware'"
31 ,"b'Philips TVs, Braun electric shavers, Logitech gaming mice, Fitbits, and more on sale for Sept. 10 in the UK https://t.co/82z4VckzML https://t.co/Bf2p7fklki'"
32 ,"b'Philips TVs, Braun electric shavers, Logitech gaming mice, Fitbits, and more on sale for Sept. 10 in (Joseph Green/Mashable!) https://t.co/u9kPo5R29I'"
33 ,"b'Philips TVs, Braun electric shavers, Logitech gaming mice, Fitbits, and more on sale for Sept. 10 in the\xc2\xa0UK https://t.co/vOvLMoKOdd https://t.co/LGKpcdHJuB'"
34 ,"b'Philips TVs, Braun electric shavers, Logitech gaming mice, Fitbits, and more on sale for Sept. 10 in the UK https://t.co/vc6BQnTHSI'"
35 ,"b'via Mashable Philips TVs, Braun electric shavers, Logitech gaming mice, Fitbits, and more on sale for Sept. 10 in the UK https://t.co/sDhjMhNRp1'"
36 ,"b'Philips TVs, Braun electric shavers, Logitech gaming mice, Fitbits, and more on sale for Sept. 10 in the UK https://t.co/wEp9ytGC5p'"
37 ,"b'Philips TVs, Braun electric shavers, Logitech gaming mice, Fitbits, and more on sale for Sept. 10 in the UK https://t.co/bVHYKQyiJO https://t.co/GA5oXyiqcm https://t.co/TGBEcWfWtP'"
38 ,"b""Philips TVs, Braun electric shavers, Logitech gaming mice, Fitbits, and more on sale for Sept. 10 in the UK\n\nThis is your best shot to grab a bargain on a wide range of top brands, so don't miss out. Seriously, a lot of these deals won't be around for lo\xe2\x80\xa6 https://t.co/p4gNgQie1y https://t.co/6efvsPJfnT"""
39 ,"b'Philips TVs, Braun electric shavers, Logitech gaming mice, Fitbits, and more on sale for Sept. 10 in the UK https://t.co/wbLRoVf0kQ'"
40 ,"b'Philips TVs, Braun electric shavers, Logitech gaming mice, Fitbits, and more on sale for Sept. 10 in the UK https://t.co/753F1thVVh #mashable'"
41 ,"b'Philips TVs, Braun electric shavers, Logitech gaming mice, Fitbits, and more on sale for Sept. 10 in the UK https://t.co/EI6PC7UykC'"
42 ,"b'Philips TVs, Braun electric shavers, Logitech gaming mice, Fitbits, and more on sale for Sept. 10 in the UK https://t.co/unsevb3EdF'"
43 ,"b'Philips TVs, Braun electric shavers, Logitech gaming mice, Fitbits, and more on sale for Sept. 10 in the UK https://t.co/XMAxSsgFyU https://t.co/49uG7T0Mo0'"
44 ,"b'Philips TVs, Braun electric shavers, Logitech gaming mice, Fitbits, and more on sale for Sept. 10 in the UK https://t.co/FGAGpSFRUy'"
45 ,"b'Philips TVs, Braun electric shavers, Logitech gaming mice, Fitbits, and more on sale for Sept. 10 in the UK https://t.co/mbBYyIyJbU'"
46 ,"b'Philips TVs, Braun electric shavers, Logitech gaming mice, Fitbits, and more on sale for Sept. 10 in the UK https://t.co/HGrIS3oEan'"
47 ,"b'Philips TVs, Braun electric shavers, Logitech gaming mice, Fitbits, and more on sale for Sept. 10 in the UK https://t.co/JrOihENfQG #UkDeals'"
48 ,"b'Philips TVs, Braun electric shavers, Logitech gaming mice, Fitbits, and more on sale for Sept. 10 in the UK https://t.co/Mlo1Xpq0Uz https://t.co/v4CJGhnrr6'"
49 ,"b'Philips TVs, Braun electric shavers, Logitech gaming mice, Fitbits, and more on sale for Sept. 10 in the UK https://t.co/2ucBD1fdpT https://t.co/YFN17A77nv'"
50 ,"b'Philips TVs, Braun electric shavers, Logitech gaming mice, Fitbits, and more on sale for Sept. 10 in the UK https://t.co/CofPNe8D0z https://t.co/Rg8qULRGz9'"
51 ,"b'Philips TVs, Braun electric shavers, Logitech gaming mice, Fitbits, and more on sale for Sept. 10 in the\xc2\xa0UK https://t.co/1iGFrmtqgk https://t.co/pBQqeXU5cd'"
52 ,"b'KLIM AIM Gaming Mouse \xe2\x80\x93 Wired Ergonomic Gamer USB Computer Mice, Chroma RGB 7000 DPI Programmable Buttons Ambidextrous, Ergonomic for Desktop PC Laptop, USB Game High Precision Optical Laser Black https://t.co/gq8nDyVoXW https://t.co/Bh5JxlYe0n'"
53 ,b'FOLLOWER &amp; LIKE GUTSCHEINCODE: FK1WL8 \xe2\x80\xa2 https://t.co/6b28Ck7QAT | VONTAR Professional 5500 DPI wired Gaming Mouse 7 Buttons LED Optical USB Mice 007 for Pro Gamer Computer PC Better than\xc2\xa0X7 https://t.co/NyI5e0iLeJ https://t.co/4VUM9XJLoF'
54 ,b'The Xtrfy M4 ultra-light gaming mouse is hitting stores soon.\n\nChoose your color and pre-order now: https://t.co/K0XTVhLTlO\n\n#xtrfy #m4 #ultralight #gaming #mouse #esports https://t.co/prcswBIzMJ'
55 ,"b'Wireless Gaming Mouse, AFUNTA 6 Buttons 2000 DPI Full Size Game Mice with USB Transmitter for PC Laptop Desk... #White+Yellow https://t.co/S1jIEIp2yj'"
56 ,b'Oh oh but I got two new gaming mice today though!! Two Model O- matte whites they\xe2\x80\x99re beautifulll!!'
57 ,b'Best Gaming Mice for 2019\n                 https://t.co/jdydbluxYQ'
58 ,b'Best Gaming Mice for 2019 https://t.co/4WaJc6T4Wq https://t.co/b1Bui4qNPm'
59 ,b'Best Gaming Mice for 2019 https://t.co/yZrg55PtMa https://t.co/rJkXS9SCDW'
60 ,"b""Hey Twitterverse, I am looking for a new gaming mouse but I can't decide between the @LogitechG_ANZ G502 Hero or the @CORSAIR M65 RGB Elite Fps mouse. I have big ass hands and these mice both feel comfortable to use. Both are basically the same price as well"""
61 ,"b""Can't believe I paid $17+ dollars for a Youse LED color changing gaming mice that doesn't even feel comfortable at all when I use it. I'm never buying cheap, plastic mices again unless it's Logitech, which I'll continue to stick with. Seriously, you can barely feel the clicks."""
62 ,b'ZUOYA Professional gamer  is now available in our shop for only $18.99. Buy it now  https://t.co/jN3NBk63JN https://t.co/jw3fFUkMmB'
63 ,"b'@Michael2014abc Both are ""gamer"". I do game, like &lt;1% of my time spent at computer, but I like to have good mice. Before these I had Logitech MX Anywhere (which also has that ""endless wheel"" which keeps rolling on inertion) but its left button died. Gaming mice are rated to at least 10M clicks.'"
64 ,b'rival 110 is the best mice for gaming @SteelSeries i love u'
65 ,"b'@OEbrat also get better earbuds, preferrably from a music company not one that branches out to ""gaming"" earbuds while also making coolers, mice, keyboards, cases and other computer hardware'"
66 ,"b'Wireless Gaming Mouse, AFUNTA 6 Buttons 2000 DPI Full Size Game Mice with USB Transmitter for PC Laptop Desk... #White+Yellow https://t.co/S1jIEIp2yj'"
67 ,"b'Logitech G mice, keyboards and headsets are up to 30% off at Amazon https://t.co/3F3EExwEQi'"
68 ,"b'Logitech G mice, keyboards and headsets are up to 30% off at Amazon https://t.co/cv6Za0TUYW'"
69 ,"b'Logitech G mice, keyboards and headsets are up to 30% off at Amazon\n\nhttps://t.co/AeVtDQab5W https://t.co/NcJKYQIOBr'"
70 ,"b""How come there aren't any Gaming mice with vibration functionality? \xf0\x9f\xa4\x94 @Razer @CORSAIR @LogitechG @SteelSeries"""
71 ,"b'FRESH! We just received the Cooler Master MM710,  \nSuper light weight (53g)!\n\nReady to order and ship with worldwide shipping!  \xf0\x9f\x94\xa5\n\nSWE: https://t.co/ykjQtfOyXB\nFI: https://t.co/tjRpit2xLf\nNO: https://t.co/7yXVUoQCL1\nEU: https://t.co/gbuD81cJLh\nWorld: https://t.co/7sv6ETJlrO https://t.co/8twDcVstns'"
72 ,b'Professional Colorful Bac is now available in our shop for only $39.96. Buy it now  https://t.co/6s4gMJIJV9 https://t.co/RoeSOqK6ri'
73 ,b'Not even 2 minutes later LUL thank goodness for @finalmouse For making the Mona Lisa of Gaming Mice https://t.co/wxQQIcRT8Y'
74 ,"b'Wireless Gaming Mouse, AFUNTA 6 Buttons 2000 DPI Full Size Game Mice with USB Transmitter for PC Laptop Desk... #White+Yellow https://t.co/S1jIEIp2yj'"
75 ,b'Logitech G release Marvel superhero-themed gaming mice challenge'
76 ,b'Mini Portable Wireless Mouse USB Charging Wireless Muted Backlight Office/Gaming Mouse Gamer Mice for Laptop PC High Quality Category: Computer Components Price: $14.93 - https://t.co/zq71UeZjbi https://t.co/nkRERzI42A'
77 ,b'@RocketJumpNinja So what\xe2\x80\x99s next in gaming mice that you want to see???'
78 ,b'ZUOYA 5500 DPI Gaming Mou is now available in our shop for only $14.80. Buy it now  https://t.co/tq7xgg4bkG https://t.co/OBK2x7U2BO'
79 ,b'Professional Wired Gaming Mouse 5500 DPI Adjustable 7 Buttons Cable USB LED Optical Gamer Mouse For PC Computer Game Mice X7 https://t.co/pWniIchkc2\n#electronics|#gadgets|#home|#lifestyle https://t.co/A41CACsrhs'
80 ,b'G403 was made to mold to your hand for long-lasting comfort during gameplay. \xf0\x9f\x93\xb7: @tygastripe\n\n#PlayAdvanced https://t.co/lXbyZXFtOn https://t.co/yNivl79BdR'
81 ,b'(Wireless Gaming Mouse Rechargeable Wireless/Wired Optical Game Mice with 9 Button 4 Levels DPI 2.4G Wireless Mobile Mice for Notebook Computer Laptop Desktop Mac Pro (F-15 New version 3000mAh)) has been discounted on eStore - https://t.co/PQ3IbvhmzN https://t.co/7AwUBTzPLs'
82 ,"b""@gshydo @sail0rwaifu hey man, thanks for buying me a really nice gaming set up, it must've cost a lot.  the insane gaming PC, 2 240hz monitors and so many mice and keyboards to try out."""
83 ,b'STOP BEING SO PICKY WITH GAMING MICE!!\n\nLogitech is LEGENDARY\n\nRazer is HISTORIC\n\nSteelSeries is NOTABLE\n\nFinalmouse \n\nZowie is INSPIRING'
84 ,b'The Best Gaming Mice Will Make You a Top Performer https://t.co/fmPIgkEioY https://t.co/vRvbWwjGkU'
85 ,"b'Wireless Gaming Mouse, AFUNTA 6 Buttons 2000 DPI Full Size Game Mice with USB Transmitter for PC Laptop Desk... #White+Yellow https://t.co/S1jIEIp2yj'"
86 ,"b""Why do we want a thin grip width and low button height on gaming mice? And does the &lt;1ms button latency make a difference?\n\nI think this might be one of the most underrated mice. Personally I love it. Here's the review for the @endgamegear XM1: https://t.co/gZun7MNvtt"""
87 ,b'Best Gaming Mouse 2019: The Best Wired and Wireless Gaming Mice https://t.co/4I5mWRH5Ub'
88 ,b'Best game mice for for your Mac\n\nhttps://t.co/F26xupfRDW'
89 ,b'@dalandanye Omg: Orange mice gaming. https://t.co/vRWGwGYANu https://t.co/KTjq0ZoW9R'
90 ,b'The Best Gaming Mice Will Make You a Top\xc2\xa0Performer https://t.co/Epg537K41z https://t.co/3zetaEUX0v'
91 ,"b""Can't wait till today with gaming mice for their mother has to kill you.''\n\xf0\x9f\x91\xbeMakeup (2.0) test it looks just need more great"""
92 ,b'The Best Gaming Mice Will Make You a Top Performer - https://t.co/CBTPHpLHCx'
93 ,b'The Best Gaming Mice Will Make You a Top Performer https://t.co/ugp5qPK8n2'
94 ,b'The Best Gaming Mice Will Make You a Top Performer https://t.co/42lrpqf6w6'
95 ,b'The Best Gaming Mice Will Make You a Top Performer https://t.co/K4yWB3gJJe https://t.co/X2Eo5kWoHo'
96 ,b'Check out Ergonomic Wired Gaming Mouse 7 Button 5500 DPI LED USB Computer Mouse Gamer Mice #iMice https://t.co/0zUvz7E9t8 via @eBay'
97 ,b'@cosmicbyteindia I actually love your gaming mice and keyboard but In all of that your headphones quality is just amazing!! Please. Bring us more amazing products like this hope u grow too much #switchtoGODmode #cosmicbyteindia'
98 ,"b'Wireless Gaming Mouse, AFUNTA 6 Buttons 2000 DPI Full Size Game Mice with USB Transmitter for PC Laptop Desk... #White+Yellow https://t.co/S1jIEIp2yj'"
99 ,b'For PC Laptop Wireless Mouse Gaming Mice Adjustable 3200DPI USB Receiver Optical Mouse Sem Fio Mini Portable Play Computer Games https://t.co/72USSWDnRj\n#tech|#electronics|#gadgets|#musthave https://t.co/AH8XBz5p23'
100,"b""Need headsets? Mice? Keyboards? \xf0\x9f\x8e\xa7\xf0\x9f\x96\xb1\xef\xb8\x8f\xe2\x8c\xa8\xef\xb8\x8f\n\nThanks to @CORSAIR's support, we're giving away some of their top of the line peripherals for tomorrow's #FallFriendlies! Don't miss out on the optimum gaming experience!\n\n#gaming #giveaway #rutgers #esports https://t.co/7BClIJIeig"""
101,"b'@RocketJumpNinja has me swimming in gaming mice at this point...AND I LOVE EVERY CYBER ATHLETIC SECOND OF IT!!\n\nI know. I have a problem. But if this is wrong, who really wants to be right? \xf0\x9f\x99\x89\xf0\x9f\x99\x8a\xf0\x9f\x99\x88 https://t.co/3kT3mEwcYD'"
102,b'Best gaming mice?'
103,"b'The icon reinvented, G502 LIGHTSPEED brings next-gen technology to your gaming. \xf0\x9f\x93\xb7: @eivindvond\n\n#PlayAdvanced https://t.co/qbt1JLhGic https://t.co/LrvIzvCLGW'"
104,"b'Wireless Gaming Mouse, AFUNTA 6 Buttons 2000 DPI Full Size Game Mice with USB Transmitter for PC Laptop Desk... #White+Yellow #link1 https://t.co/S1jIEIp2yj'"
105,"b'@The_FortniteGuy @LogitechG best mice in the g pro wireless, @SteelSeries best headset, bar none with the arctis pro wireless. @Razer for keyboard bc colors. @LGUS for the best ultra wide gaming monitor experience with the 34gk950g'"
106,b'Best buy\nhttps://t.co/qJ4mx3JuWK'
107,"b'@JasonArgonian @Keekalakookoo Nooooooooooooo... the dreaded mac issues \xf0\x9f\x98\xad\xf0\x9f\x98\xad\xf0\x9f\x98\xad In the software, have you set the surface? That is usually the number one problem with gaming mice is surface detection.'"
108,b'@SteelSeries best gaming mice https://t.co/XGncNPg3l6'
109,b'@dvrkie corsair m55 rgb pro \n\ni use it https://t.co/iBzkB6S8Gn'
110,"b'Zelotes 12 Programmable Buttons MMO Gaming Mouse,8 Adjustable Weights,4000 DPI Up to 8000DPI by the Software ,Multi-Modes LED lights USB Wired Mice for Gamer,PC,Laptop,Computer,Black https://t.co/eVAexnX8qs https://t.co/XuKOg1PqK6'"
111,"b'@TehJamJar There are wireless options as well, very well rounded mouse. Logitech g403 https://t.co/awyOXntsJ9'"
112,"b'Wireless Gaming Mouse, AFUNTA 6 Buttons 2000 DPI Full Size Game Mice with USB Transmitter for PC Laptop Desk... #White+Yellow https://t.co/S1jIEIp2yj'"
113,"b'Who sells the best gaming peripherals? Keyboards, mice, headsets, etc... tag them!'"
114,b'@toejamandearl Not sure what software works with what mice but Logitech mice are pretty common and work with Logitech Gaming Software lol'
115,b'@AshleyRoboto Those MX mice are fantastic. I used to use one when I traveled but swapped to gaming mice when I started in January.'
116,b'@DonnyProfanity Logitech mice are the best my mouse is an actual 10/10 https://t.co/Q4lDpsG4YC'
117,b'@LogitechG @WIRED your gaming mice suck. over sensitive buttons and mouse acceleration that will just not turn off no matter what.'
118,"b'.@WIRED included the PRO Wireless and PRO Gaming Mouse on their list of Best Mice for Every Kind of Gamer. Let us know which one you use with a \xf0\x9f\x92\xac or a \xf0\x9f\x92\x99, and see the full list at: https://t.co/gxtbBCLSHv https://t.co/j9m3gRNZyi'"
119,b'What are the best cheap gaming mice'
120,"b'@leflore_moriah @PlaidHatGames You know this is a two way street. Any time we have needed volunteers at shows, or to help test our games, or even pack boxes, the gaming public has been right there for us. When we want to make games, we know who to make them for.'"
121,b'Does anyone know someone who can custom paint a gaming mouse? I really want to get my Logitech G Pro Wireless done. #Custom #Paint #Gaming #Mouse #Mice'
122,"b'Wireless Gaming Mouse, AFUNTA 6 Buttons 2000 DPI Full Size Game Mice with USB Transmitter for PC Laptop Desk... #White+Yellow https://t.co/S1jIEIp2yj'"
123,b'2.4GHz Wireless Optical Mouse Gamer New Game Wireless Mice with USB Receiver Mause for PC Gaming\xc2\xa0Laptops https://t.co/lYC1LrkifD https://t.co/edcfOfiqxc'
124,b'100% Original Razer DeathAdder Essential Wired Mouse Professional-Grade Gaming Mouse 6400DPI Optical Sensor Mice for Computer\xc2\xa0PC https://t.co/ulMeF5dl77 https://t.co/UxCUc5al1q'
125,"b""@Schyax I got a few things you might like, have a look at these:\nhttps://t.co/WTFLgTvywL\n\nhttps://t.co/t2vnTHrQFP\n\nhttps://t.co/RVHMcW3t9B\n\nThey're all really good mice, I personally love the Basilisk, hope this helps!"""
126,b'Optical LED Game Mice for Computer. 100% brand new and high quality. Comes with 6 buttons and scroll wheel.Ultra-precise Scroll Wheel.\n#mice #gaming #gamingaccessories #gamer #wirelessmouse #ps4 #gamingmouse #gamingmice #gaminglife #videogames #gamingmemes #games #pcgaming https://t.co/9okUXsvJSS'
127,b'Wired Gaming Mouse mause  is now available in our shop for only $17.94. Buy it now  https://t.co/zmec1tAQrV https://t.co/qA1Tp1h73t'
128,b'#hashtag4 Wired Gaming Game 1200 DPI USB Wired Optical Gaming Game Mice Mouse Cute Women Men Couple Gift Mouse For PC Laptop https://t.co/g3RfBVUKGb https://t.co/uzLFjpCexp'
129,"b'Wireless Gaming Mouse, AFUNTA 6 Buttons 2000 DPI Full Size Game Mice with USB Transmitter for PC Laptop Desk... #White+Yellow https://t.co/S1jIEIGDpR'"
130,"b""@Invictable it's so that the mouse is lighter, the weight of this mouse like 47 grams whereas most gaming mice are over like 90-100"""
131,b'USB Wireless Gaming Mouse LED Optical Ergonomic Game Mice Pro Gamer PC 8000DPI https://t.co/moHar0jsLY https://t.co/hfIRCcYbbp'
132,b'Restocked! Glorious Model O Gaming Mice.\n\nShop now: https://t.co/KOPA7HZVBf https://t.co/CuuoVW7JzL'
133,b'@LinusTech 3. Lack of software for peripherals such as gaming mice or keyboards etc. from some manufacturers.\n4. Various bugs here and there like fedora 30 installer crashing on me non stop. Went with popos and slowly getting myself familiar with it ever since.\nAll that said Linux is da way'
134,b'@fiasco187 47 gram mouse most gaming mice are over 100 grams or more'
135,b'So you make gaming mice but you dont have one single mouse in stock\xf0\x9f\xa4\xa3\xf0\x9f\xa4\xa3\xf0\x9f\xa4\xa3 @finalmouse https://t.co/iMhHG9qfZt'
136,"b'Zelotes 12 Programmable Buttons USB Wired Gaming Mouse Mice,4000 DPI Up to 8000DPI by the Software ,Weight Tuning Set,Multi-Modes LED lights for Notebook, PC, Laptop, Computer, Macbook \xe2\x80\x93 Black https://t.co/W6hGFBtQrX https://t.co/tEsNSOVDEW'"
137,b'G800 Usb Wired Gaming Mouse Ergonomic Mechanical Mice 9 Buttons Macro Programmable Desktop Laptop Pc\xc2\xa0Gamer https://t.co/LKpnvK1eel https://t.co/qiJGE3XDYi'
138,b'#hashtag4 3D USB Wired Game Mouse Mice LED Optical 7 Buttons Pro Gamer Computer Mice For Desktop PC Laptop Adjustable Gaming Mouse https://t.co/x6TQgQPmlA https://t.co/zNpay9kMK3'
139,"b'Wireless Gaming Mouse, AFUNTA 6 Buttons 2000 DPI Full Size Game Mice with USB Transmitter for PC Laptop Desk... #White+Yellow https://t.co/S1jIEIp2yj'"
140,b'@XimGotti @Repunked they literally make keyboards JUST for gaming? same with mice lol you do know there are controllers that aren\xe2\x80\x99t meant for gaming ?'
141,b'3D printer recommendations that dont break your bank account https://t.co/1wtH01xbhh Technology Im starting to take interest in gaming mouse mods and cases and was thinking on making custom mice shells any recommendations on a printer to do this and what software you use for de\xe2\x80\xa6'
142,"b'When you need a HERO in your corner, PRO Wireless, G703 HERO, or G502 LIGHTSPEED has you covered. \xf0\x9f\x93\xb7 IG: clintans\n\n#PlayAdvanced and learn more about all our mice at: https://t.co/KQjl8bwECm https://t.co/wVXcpdc9gv'"
143,"b""I rarely use mice and keyboard for my pc games and I don't play multiplayer games at all , it would be nice if the new mx mouse and keyboard are competent enough if i used them for gaming"""
144,b'I hope the new Logitech mx master mouse and keyboard has the same lightspeed wireless tech that their gaming mice has'
145,"b'The Glorious Model O- is here! Our line of extreme lightweight gaming mice is up for grabs. Available in black, white, matte and glossy variants. Get your Model O- today! https://t.co/Lg8xtranmq'"
146,"b""It's here! The smaller @GloriousPCGR Model O- is just 58g, check out my review of one of the top gaming mice \xf0\x9f\x94\xa5  https://t.co/bRfRSzSgLG https://t.co/jOCWW5vo7o"""
147,b'#homevideo #gaming PMW3325 Dual Mode Gaming Mouse Wired and Wireless 5000 DPI 8 Buttons PUBG Computer Mouse Mice for FPS PC Laptop Gamer https://t.co/m2JxSVqI1u https://t.co/kT9XzRrCUx'
148,"b'This New Logitech Mouse Has a Magnetic Wheel That Feels Like Magic https://t.co/NjWRpBAl6O Technology Thanks to PC gaming, fancy mice with high with DPI sensors and tactile mechanical keyboards have become a lot more popular. Yet when it comes to productivity, Logitech\xe2\x80\x99s MX-ser\xe2\x80\xa6'"
149,b'Rapoo 8200P Multimedia Wireless Keyboard Mouse Combos with Fashionable Ultra Thin Whaterproof Silent Mice for Computer Gaming\xc2\xa0TV https://t.co/6V7FqcUAJk https://t.co/oMmLXcKHCq'
150,"b'New identity = new products \xf0\x9f\x98\x8e The 3 series are named after principal gods: Heimdall, Tyr and Thor \xf0\x9f\x91\x8c\xf0\x9f\xa4\xa9 True to our origins and values, mice are called \xe2\x80\x9chand weapons\xe2\x80\x9d, headsets are \xe2\x80\x9chelmets\xe2\x80\x9d keyboards \xe2\x80\x9cboards\xe2\x80\x9d and mouse mats \xe2\x80\x9cshields\xe2\x80\x9d.\nFor more info:\nhttps://t.co/nnFxFOvHut'"
151,"b'@Logitech I hope your upcoming Gaming gear (mice, keyboards, headsets etc.) will also be equipped with USB-C and not again with the shitty, old-fashioned, outdated microUSB-port, like your brandnew G915. @LogitechG'"
152,b'My gaming mice orders from @GloriousPCGR and @finalmouse are arriving the same day... \xf0\x9f\x98\xb5\xf0\x9f\x98\xb5\xf0\x9f\x98\xb5\xf0\x9f\x98\x8e\xf0\x9f\x98\x8e\xf0\x9f\x98\x8e'
153,"b'Wireless Gaming Mouse, AFUNTA 6 Buttons 2000 DPI Full Size Game Mice with USB Transmitter for PC Laptop Desk... #White+Yellow https://t.co/S1jIEIp2yj'"
154,b'These are the best gaming mice for folks with large hands https://t.co/xPJsKA7cSA https://t.co/dlJFNEyFLb'
155,"b""@nathanskrrt @taehatypes @Logitech there are also some features that really helps for productivity and you'll not find those features on gaming mice"""
156,b'Celebrating my 10-year @Twitch-versary by trying out the 4 new gaming mice I just bought. #omegalul #GameOfMice #p3ggzHi https://t.co/jy35KxgtZt'
157,"b'@theomegabit @dominocollege I\xe2\x80\x99ve had gaming mice, ms mice, 3,4,5,6,7 button mice. I\xe2\x80\x99d still take the Apple trackpad for my day job. Now are we playing unreal tournament? Then I\xe2\x80\x99ll take a high precision gaming mouse. But I don\xe2\x80\x99t get to do that anymore....'"
158,b'very special mice made for very special people... \xf0\x9f\x98\x8a\nAORUS Gaming Community where you at? \xf0\x9f\x99\x8c \xf0\x9f\x99\x8c \n.\n.\n.\n#aorus #aorusgaming #gamingpc #pcgaming #gamimgmouse #pcmasterrace https://t.co/K8ubm27fdv'
159,b'@imduckietheduck Omg: Orange mice gaming. https://t.co/vRWGwGYANu https://t.co/tZ8FC0Ksl7'
160,b'@DadBodGaming3 @FabkzK @adiofreak8996 I combined the fuck out of alcohol and gaming mice.'
161,b'#art\nMaiYaCa New Designs Naruto Laptop Gaming Mice Mousepad Size for 180x220x2mm and 250x290x2mm Small Mousepad \n\xf0\x9f\x91\x87\xf0\x9f\x91\x87\xf0\x9f\x91\x87\xf0\x9f\x91\x87\xf0\x9f\x91\x87\xf0\x9f\x91\x87\xf0\x9f\x91\x87\xf0\x9f\x91\x87\nhttps://t.co/559cpU33JJ https://t.co/aTL3BP4OdK'
162,"b'@finalcollision @SteelSeries i have the arctis 3 and love them, i want to upgrade to the arctis 7 soon. \n\nhttps://t.co/W1iMeuzusn'"
163,b'Wireless Optical USB Rechargeable Silent Backlit Gaming Mice Mouse For Laptop PC https://t.co/ryWHXnvPE4 https://t.co/76yTDponKR'
164,"b""@Floejisan I don't know what your budget is, I personally own this one and it's phenomenal. Can be wired or wireless, and customized to your needs. https://t.co/XV3L22w4xV"""
165,"b'Yes, please, @LogitechG. More ergonomic gaming mice, please! https://t.co/C1A2vXl0OA'"
166,b'These are the best gaming mice for folks with large hands https://t.co/LfDE2DhnmY https://t.co/VRWh7P4vb1'
167,"b'Wireless Gaming Mouse, AFUNTA 6 Buttons 2000 DPI Full Size Game Mice with USB Transmitter for PC Laptop Desk... #White+Yellow https://t.co/S1jIEIp2yj'"
168,"b'Up to 66% Off SteelSeries Classics\n#couponcodes #promocodes #freeshipping #deals #offers \nSteelSeries is a leading manufacturer of top quality gaming peripherals from headsets, keyboards and mice to controllers, surfaces and software.\nhttps://t.co/xRV0Nzh7eL https://t.co/NGo5IMZ7ZQ'"
169,b'Delux M625 PMW3360 Sensor Gaming Mouse 12000DPI 12000FPS 7 Buttons RGB Back light Optical Wired Mice with Fire Key For FPS\xc2\xa0Gamer https://t.co/NacVGXty30 https://t.co/Bc711IzLqo'
170,b'Would be cool if they added vibration feedback to gaming mice'
171,"b""@Coruscating @CORSAIR I'm confident in saying that @LogitechG has the best gaming mice on the market, and their Lightspeed Wireless mice are the only wireless mice worth considering."""
172,"b'libratbag 0.10-2 (x86_64/Community)\n""A DBus daemon to configure gaming mice""\n&lt;2019-09-04&gt;'"
173,b'Wireless Mouse 1200DPI 2.4GHz Computer Portable Gaming Mice Adjustable USB Receiver Optical\n 28.70 \xe2\x82\xac and FREE Shipping \nShippedsale https://t.co/yYNXubyIBQ'
174,"b'@Stammy At least it doesn\'t have RGB lighting, like ""real"" gaming mice :-)'"
175,"b""right, apparently I've gotten old and my arms no longer work well\n\nif anyone here is in the same niche as I, link me good ergonomic mice for gaming. I want to not feel pain after a gaming session again."""
176,"b'Gaming hardware is a growing market with a plus of 14.3% in the first half of 2019. \xf0\x9f\x8e\xae\nNotebooks, monitors, keyboards, mice and headsets for gamers are performing very well. We expect +14% for the whole year 2019 with a turnover of 12.4 billion \xe2\x82\xac. \xf0\x9f\x92\xaa\xf0\x9f\x93\x88 #IFA19 https://t.co/SKIZaOLZdY'"
177,"b'USB Gaming Mouse Wired Game Computer Mice with 6 Buttons for PC,Gamer https://t.co/PwTr3zgseI https://t.co/c24Em0KKq4'"
178,b'#hashtag3 2018 NEW Mechanical Gaming Mouse Game Competitive Mice Adjustable 3200DPI 7 Programmable Buttons LED backlight for LOL Comouter https://t.co/Da08nx979n'
179,"b'This New Logitech Mouse Has a Magnetic Wheel That Feels Like Magic Thanks to PC gaming, fancy mice with high with DPI sensors and tactile mechanical keyboards have become a lot more popular. Yet when it comes to productivity, Logitech\xe2\x80\x99s MX-series mice ar\xe2\x80\xa6 https://t.co/uXDjbDS9bo'"
180,"b'Wireless Gaming Mouse, AFUNTA 6 Buttons 2000 DPI Full Size Game Mice with USB Transmitter for PC Laptop Desk... #White+Yellow #link1 https://t.co/S1jIEIp2yj'"
181,"b'Amazon\xe2\x80\x99s awesome one-day PC accessories sale offers blowout deals on gaming mice, storage, and\xc2\xa0more https://t.co/ZuiCGLLmWE'"
182,"b'Amazon\xe2\x80\x99s awesome one-day PC accessories sale offers blowout deals on gaming mice, storage, and\xc2\xa0more https://t.co/ZJSMwq7Y7E'"
183,b'PLAY AT LIGHTSPEED https://t.co/pfFeSkDOsu'
184,b'#electronics #technology #tech #gadgets Delux M618 PLUS Ergonomics Vertical Gaming Wired Mouse 6 Buttons 4000 DPI Optical RGB Wireless Right Hand Mice For PC Laptop https://t.co/26cRjVyxZ1 https://t.co/d5Gf48aWQc'
185,b'Fingerprint Mouse Replace Input Password Wired Optical Ergonomic Game Work Mouse For Pc Laptop Silence Gaming\xc2\xa0Mice https://t.co/Yg5clmHL1C https://t.co/3nyxYKa8JI'
186,b'Gaming Mouse Adjustable Wired Optical LED Computer Mice USB Cable Mouse\n \xe2\x82\xac and FREE Shipping \nShippedsale https://t.co/qgV5qMWYeO'
187,b'#tech #gadgets Noiseless Wireless Mouse Optical Mouse Gaming Silent usb rechargeable Mice 1800dpi 7 Color LED Mouse For PC Laptop Computer https://t.co/DLL3oViz80 https://t.co/F4MbcmtFkM'
188,"b'@hondanhon I\xe2\x80\x99ve been impressed by Razer gaming mice. There are also a fair number of mouse substitutes to look at, various joystick options, etc. Testing out a bunch is probably a safe bet.'"
189,"b'And here\xe2\x80\x99s a link to the mouse (specs, price, etc.): https://t.co/MTNbS3Obxn'"
190,"b""It's not secret that lightweight #mice will up your #gaming, especially in #firstpersonshooter #games @ROCCAT #KovaAIMO\nhttps://t.co/cxoNIWoHLU #ROCCAT @adrenalinuk https://t.co/XkifwkIDgv"""
191,b'@KINGSBLEND4 Thanks for your interest in our gaming mice! :)'
192,"b""Best gaming mouse 2019: the best gaming mice we've tested https://t.co/A7bYpn1frx"""
193,"b'Wireless Gaming Mouse, AFUNTA 6 Buttons 2000 DPI Full Size Game Mice with USB Transmitter for PC Laptop Desk... #White+Yellow https://t.co/S1jIEIp2yj'"
194,"b'So I\'m looking at mice on Amazon at my work and my coworker comes by and starts talking to me about gaming mice. Then he says, ""Hey uh... I have a Logitech G502 that I can just give you. I don\'t use it anymore.""\n\nSometimes things just work out \xf0\x9f\xa4\xb7\xe2\x80\x8d\xe2\x99\x82\xef\xb8\x8f\xf0\x9f\x98\x82\n\nAlso, I owe him a beer lol'"
195,"b""Recommend me some gaming keyboards and mice, for science purposes.\n\nNote: My hands are small and I don't like mechanical.\n\nGO!"""
196,b'Best Wireless Gaming Mouse 2019: Ditch Wires with These Wireless Gaming Mice https://t.co/PUktpJ930h'
197,"b'TRITTON TM200 Gaming Mouse with Side Buttons, RGB Breathing Light Gaming Mice Ergonomic High-Precision PC Gaming Mouse, Auto Sleeping for MAC Laptop PC Notebook https://t.co/zGjbCQVzGs https://t.co/WQLziHB0iK'"
198,b'I\xe2\x80\x99ve come to top the ultimate gaming mice https://t.co/zw77LG2TqQ'
199,b'@RocketJumpNinja @GloriousPCGR bro...!! will you please find me the best infinite scrolling RGB gaming mouse please?!?!? I love dual scrolling mice! i.e. - mice you can set on infinite scroll and leave alone..;]'
200,b'I got one of those fancy gaming mice\n\nwho wants to sign me up for their esports team \xf0\x9f\x98\xa4'
201,b'G800 Usb Wired Gaming Mouse Ergonomic Mechanical Mice 9 Buttons Macro Programmable Desktop Laptop Pc\xc2\xa0Gamer https://t.co/XKq7gauG5T https://t.co/IZbbKkPchU'
202,"b""@CraniumSquirrel I don't trust Razer mice.\n\nI've been using this one for a couple of months and it's pretty great.\nhttps://t.co/bPAvJOCpEB"""
203,"b'When you\xe2\x80\x99re on the battlefield, every click counts. \xe2\x8c\xa8\xef\xb8\x8f \xf0\x9f\x96\xb1\xef\xb8\x8f Our new collection of gaming keyboards and mice will help you to decimate the competition in style. https://t.co/usBAUqSTua'"
204,b'Cooler Master MM710 gaming mouse review: One of the best mice of 2019: The Cooler Master MM710 weighs a mere 53g. https://t.co/j3FzIvs4dy'
205,"b'Wireless Mouse\xe3\x80\x907 Silent Click Buttons\xe3\x80\x91 VicTsing 2.4G Professional Cordless Gaming &amp; Office Optical Mice with 5 Adjustable DPI for Laptop PC Computer Windows Mac etc. \xe2\x80\x93 Super Energy Saving, Red\nMore Info: https://t.co/zZA0lsrUTu\n\nColour Name:Red  Description: . This is a ... https://t.co/YPLHG7KKHv'"
206,"b'Wireless Gaming Mouse, AFUNTA 6 Buttons 2000 DPI Full Size Game Mice with USB Transmitter for PC Laptop Desk... #White+Yellow https://t.co/S1jIEIp2yj'"
207,b'2017 New Arrival Mouse Sem Fio Portable 2.4Ghz Wireless Optical Gaming Mouse Gamer Mice For PC Laptop Computer Pro Gamer https://t.co/nmGOCuEuE5\n#electronics|#gadgets|#home|#lifestyle https://t.co/0hiGvjtJFN'
208,b'imagine if they added a rumble feature to keyboards and mice so you could get that same gaming experience with rumble in controllers\n\nthe logical extension of this is making a virus that just makes your keyboard and mouse rumble as intensely as possible constantly'
209,b'https://t.co/IlNJKvnEfT\n Non Slip Round Galaxy Mouse Pad Mice Mat For #Laptop Notebook Computer PC Gaming\nPrice: $2.99\n Ends on : 2019-10-02 01:50:07\nView ... https://t.co/0YzfLvjmpl'
210,b'\xe2\x80\x9cSilent Click USB Wired Gaming Mouse 6 Buttons 3200DPI Mute Optical Computer Mouse Gamer Mice for PC Laptop Notebook Game\xe2\x80\x9d https://t.co/lbPNhO7Ic9\n\n#electronics #technology #tech #3dPrinter #electronic #device #gadgets #camera #Xiaomi #geek #techie #sma\xe2\x80\xa6 https://t.co/upGMgMgHg0 https://t.co/LxQnFod6Ta'
211,b'\xe2\x80\x9cErgonomic Wired Gaming Mouse 7 Button 5500 DPI LED USB Computer Mouse Gamer Mice X7 Silent Mause With Backlight For PC Laptop\xe2\x80\x9d https://t.co/qu1s6Itzyb\n#electronics #technology #tech #3dPrinter #electronic #device #gadgets #camera #mouse #geek #techie #smartwatches #techy https://t.co/6upDU1ZHNR'
212,b'Gaming Headset Deep Bass Stereo Game Headphone with Microphone LED Light for PS4 PC Laptop+Gaming Mouse+Mice Pad - Negamy https://t.co/iJVJH8eatV\n\n#electronics #technology #tech #3dPrinter #electronic #device #gadgets #camera #mouse #geek #techie #smartwatches #techy https://t.co/URIyA4qrEX'
213,b'\xe2\x80\x9c100% Original Razer DeathAdder Essential Wired Mouse Professional-Grade Gaming Mouse 6400DPI Optical Sensor Mice for Computer PC\xe2\x80\x9d https://t.co/4GHPXIuoc7\n#electronics #technology #tech #3dPrinter #electronic #device #gadgets #camera #mouse #geek #techie #smartwatches #techy https://t.co/rbrTsZFuJh'
214,"b""@TheOtherTravGuy Logitech makes some good gaming mice if you ever decide to look at their stuff. I use the G502 and it's been great!"""
215,b'\xe2\x80\x9cSilent Click USB Wired Gaming Mouse 6 Buttons 3200DPI Mute Optical Computer Mouse Gamer Mice for PC Laptop Notebook Game\xe2\x80\x9d https://t.co/lbPNhO7Ic9\n#electronics #technology #tech #3dPrinter #electronic #device #gadgets #camera #Xiaomi #geek #techie #smartwatches #techy https://t.co/MHGamlg2DI'
216,"b'At Autozone right now, guess I should grab some for my gaming mice https://t.co/sPaLoTdx2H'"
217,b'#aliexpress #\xd0\xb0\xd0\xbb\xd0\xb8\xd1\x8d\xd0\xba\xd1\x81\xd0\xbf\xd1\x80\xd0\xb5\xd1\x81\xd1\x81\n\xe3\x80\x90Professional Wired Gaming Mouse 7 Button 5500 DPI LED Optical USB Computer Mouse Gamer Mice X7 Game Mouse Silent Mause For PC\xe3\x80\x91\n \xe2\x86\x92 https://t.co/dLKrD35UZM'
218,b'History of mice/mouse\n\nHere\xe2\x80\x99s mine:\n\nCorsair Harpoon -&gt; Logitech g502 -&gt; Logitech g403 -&gt; Glorious Model O -&gt; Finalmouse Air58 Ninja/UL2\n\nHow about you?? \n\n#mouse #mechmarket #pcgaming #peripherals #gaming'
219,b'Razer Abyssus Elite https://t.co/mHdKcB5Rjs Edition mouse available now on Techall!\nhttps://t.co/pEXSGiOLVi\n\n#gaming #gamingmouse https://t.co/yEYnUmyjOK'
220,"b'Wireless Gaming Mouse, AFUNTA 6 Buttons 2000 DPI Full Size Game Mice with USB Transmitter for PC Laptop Desk... #White+Yellow https://t.co/S1jIEIp2yj'"
221,b'2.4GHz Wireless Optical Mouse Gamer New Game Wireless Mice with USB Receiver Mause for PC Gaming\xc2\xa0Laptops https://t.co/W0Tp8EYhl0 https://t.co/Ti0HC0TiNH'
222,b'100% Original Razer DeathAdder Essential Wired Mouse Professional-Grade Gaming Mouse 6400DPI Optical Sensor Mice for Computer\xc2\xa0PC https://t.co/cJ8cybApIT https://t.co/pOaPP3zx2z'
223,b'Delux M625 PMW3360 Sensor Gaming Mouse 12000DPI 12000FPS 7 Buttons RGB Back light Optical Wired Mice with Fire Key For FPS\xc2\xa0Gamer https://t.co/oRaQO483gg https://t.co/9LKpZkeaVH'
224,b'@AmusorUK https://t.co/ii5pUVCiGw i use this'
225,b'#electronics #technology #tech #gadgets kebidumei Ultra Thin USB 2.4Ghz Wireless Mouse Optical Gaming Slim Receiver Computer For Apple Mac Laptop Power Switch Mice https://t.co/3jYRIUz4NL https://t.co/XWK5HG2IVZ'
226,"b'[GTA, ON][H] Gaming Mice [W]Cash EMT https://t.co/yCjlvoRioh https://t.co/HeTEYiprzx'"
227,b'@s8n Satan what gaming mice should I get'
228,"b'PICTEK Gaming Mouse Wired [7200 DPI] [Programmable] [Breathing Light] Ergonomic Game USB Computer Mice RGB Gamer Desktop Laptop PC Gaming Mouse, 7 Buttons for Windows 7/8/10/XP Vista Linux, Black  Buy Now https://t.co/eWOqeocuBz https://t.co/PbViUP7FoS'"
229,"b""I took a look at the Roccat Kain 120 for GR, and it's probably one of the most comfortable gaming mice I've ever used. Check out my review here: https://t.co/nIEVhGuX3w https://t.co/tOmyndD6yn"""
230,"b'Conversation with fans,\nFans: In TESORO, you will use gaming keyboard on work?\xf0\x9f\xa4\x94\nMe: Not just keyboard, I also have gaming chair and mice.\xf0\x9f\x98\x8e\nFans: What kind of feeling is that?\nME: Maybe is when I use Excel, I feel I\xe2\x80\x99m Excel E-sports player\xf0\x9f\x91\x8d\n\n#excel #esport #work #gamingchiar https://t.co/QFYJ387lJD'"
231,b'2400 DPI 7 Button LED Optical USB Wired Gaming Mouse Mice for Pro Gamer New #18 https://t.co/3es1yfxFvt https://t.co/SlGAzANtTA'
232,"b'Wireless Gaming Mouse, AFUNTA 6 Buttons 2000 DPI Full Size Game Mice with USB Transmitter for PC Laptop Desk... #White+Yellow #link1 https://t.co/S1jIEIp2yj'"
233,b'@xdaynekyrex Omg: Orange mice gaming. https://t.co/vRWGwHgbF2 https://t.co/26gWQlj38q'
234,"b'@carolinagamer99 Are you running any Logitech software? Specifically the main software for their mice or headset or keyboard? If so check for Logitech gaming framework in TM, it\xe2\x80\x99ll eat up more ram the longer it runs'"
235,b'2400DPI Adjustable 2.4G LED Wireless 7 Button Gaming Mouse Mice For Gamer https://t.co/pD8C9vSO9d https://t.co/2nfor6PmqU'
236,"b'(Gaming Mouse Wired [ Programmable ][ Breathing Light ] [ 3200 DPI ] [ Weight Tuning Set ], ZELOTES PC,Computer Gamer Mice, 6 Buttons for Both Hands- Black.) has been discounted on eStore - https://t.co/N9k0bfC5SW https://t.co/Cu7mjs7rua'"
237,b'#electronics #technology #tech #gadgets Noiseless Wireless Mouse Optical Mouse Gaming Silent usb rechargeable Mice 2400dpi Built-in Battery For PC Laptop Computer https://t.co/Ama6kf6X10 https://t.co/waGWWhE2WJ'
238,"b""Live tonight with some stuff to whoever the best gaming mice for Canada's"""
239,"b""@mr_isaacs @haskell @irvspanish @iThriveGames @iluveducating @JenWilliamsEdu @BeckyKeene @kerszi @clionbailey @mpilakow Hello Steve, I submitted a @DonorsChoose request for gaming keyboards, headsets, and mice and the local @Staples fulfilled the grant in less than 24 hours. We were stunned, and grateful! I'm not sure large corporations can support items through the #clearthelist movement."""
240,"b'@ItMeNazo @t8styham Since when has corsair been overated?\n\nThey make good stuff and they\'re the only one\'s who made a good claw grip gaming mice (accordingly named ""iron claw"", i was skeptical at 1st but it is the most comfortable mouse I\'ve ever had)'"
241,"b'Wireless Gaming Mouse, AFUNTA 6 Buttons 2000 DPI Full Size Game Mice with USB Transmitter for PC Laptop Desk... #White+Yellow https://t.co/S1jIEIp2yj'"
242,b'@HexaBlu @Razer Oh ok. There are a few more small gaming mouse that have been coming out though. Like the Model O- and there will most likely be a lot more small gaming mice to choose from in the coming months/year.'
243,b'@Foritain Who knew Logitech made such small gaming mice :/'
