   ,text
0  ,"b'@DougDeMuro But most elderly people are somewhat used to computer mice. Anyway the elderly are not likely to ever use the in car technology. Most people, including the elderly, just use their cell phones for satnav.'"
1  ,b'I have destroyed\nThe mice\nThat were in\nThe school\n\nAnd which\nYou were likely\nWatching\nFor computer\n\nForgive me\nThey were particular\nSo ecstatic\nAnd so trustworthy'
2  ,"b""@Pastabiliti @RobinAChilds I know understand that you probably mean with the computer mouse, but it's far too late to stop my brain from imagining a massage parlor for dogs where the massaging is done by swarms if nimble footed mice...far, far too late..."""
3  ,b'Check out Ergonomic Wired Gaming Mouse 7 Button 5500 DPI LED USB Computer Mouse Gamer Mice #iMice https://t.co/0zUvz7E9t8 via @eBay'
4  ,"b'This is my new favorite website: an archive of photos, specs and details for old computer mice. I love it https://t.co/8ZQBNQYWII'"
5  ,"b'KLIM AIM Gaming Mouse \xe2\x80\x93 Wired Ergonomic Gamer USB Computer Mice, Chroma RGB 7000 DPI Programmable Buttons Ambidextrous, Ergonomic for Desktop PC Laptop, USB Game High Precision Optical Laser Black https://t.co/gq8nDyVoXW https://t.co/Bh5JxlYe0n'"
6  ,b'Hot Sale Five Colors 2.4GHz Wireless Mouse USB Optical Scroll Mice for Tablet Laptop Computer Luxury LJJ0302 Drop Ship https://t.co/BYgnkpbWqt\n#tech|#electronics|#gadgets|#musthave https://t.co/uq1VP9i3A3'
7  ,b'FOLLOWER &amp; LIKE GUTSCHEINCODE: FK1WL8 \xe2\x80\xa2 https://t.co/6b28Ck7QAT | VONTAR Professional 5500 DPI wired Gaming Mouse 7 Buttons LED Optical USB Mice 007 for Pro Gamer Computer PC Better than\xc2\xa0X7 https://t.co/NyI5e0iLeJ https://t.co/4VUM9XJLoF'
8  ,"b""Why are computer mice called mice why can't they be called Cats? ##SnappySnarts"""
9  ,"b'Top 10 Best Computer Keyboards, Mice &amp; Accessories  https://t.co/y4sbS60uSj https://t.co/wuMLpViNKx'"
10 ,"b'Hey @finalmouse, ALL 3 OF MY MICE have Faults/ and are BROKEN. Literally one even crashes my computer when I plug it in. Your company is a joke.'"
11 ,"b'@MGYRZ_ @BenjoK9 @mcleannjack Is it two computer mice or mouses?\nIn most cases, the plural of mouse is ""mice,"" but more than one computer mouse can also be called ""mouses.""'"
12 ,b'ZUOYA Professional gamer  is now available in our shop for only $18.99. Buy it now  https://t.co/jN3NBk63JN https://t.co/jw3fFUkMmB'
13 ,"b'Is it ""computer mouses"" or ""computer mice""? \xf0\x9f\xa4\x94'"
14 ,b'you know those things they had in preschool with a clear dome where if you pushed them down all these colorful balls inside would pop up? yah so i think they should make computer mice like that'
15 ,"b'@Michael2014abc Both are ""gamer"". I do game, like &lt;1% of my time spent at computer, but I like to have good mice. Before these I had Logitech MX Anywhere (which also has that ""endless wheel"" which keeps rolling on inertion) but its left button died. Gaming mice are rated to at least 10M clicks.'"
16 ,"b""@jaguar06_rick @cherokeesher2 @realDonaldTrump It is a typo. I had my computer fixed about a year ago &amp; they replaced the keyboard.The replacement happened to be in German so they put this one in &amp; it can't keep up with me &amp; at times tosses letters all over the place. I do try to be careful. But little mice?No big deal to me"""
17 ,"b'@OEbrat also get better earbuds, preferrably from a music company not one that branches out to ""gaming"" earbuds while also making coolers, mice, keyboards, cases and other computer hardware'"
18 ,b'USB Wired 4000DPI Adjustable 7 Buttons LED Optical Game Mouse Computer Mice Category: Computer Components Price: $15.54 - https://t.co/zTzthWk0pb https://t.co/0sNXbyDky2'
19 ,b'Are you a good listener?  How can there be spiders and mice in the classroom?  Learn Computer-Speak with Rosemary!  - https://t.co/l3MSqIvwd3'
20 ,b'considering buying a g600 for my office computer just because I\xe2\x80\x99ve spent so long using one that regular mice feel baby sized in my hands now'
21 ,"b""Why are computer mice called mice why can't they be called Cats? ##SnappySnarts"""
22 ,b'#hashtag3 MantisTek S6 2.4GHz Wireless Ergonomic Vertical Mouse 1600DPI Adjustable 6 Buttons Computer Mice For PC Laptop https://t.co/urciYaTipu https://t.co/7ByOSazvCo'
23 ,"b'2/ My legs burned from the climb\xe2\x80\x94there\xe2\x80\x99s no grade to a vertical access ladder.\n\nThe operator checked his gauges. \xe2\x80\x9cComputer says we\xe2\x80\x99re a-okay.\xe2\x80\x9d\n\n\xe2\x80\x9cThat\xe2\x80\x99s because the Blind Mice hacked it.\xe2\x80\x9d My hat had gone crooked and I fixed it now. \xe2\x80\x9cHeck, you can feel the pressure.\xe2\x80\x9d'"
24 ,b'Mini Portable Wireless Mouse USB Charging Wireless Muted Backlight Office/Gaming Mouse Gamer Mice for Laptop PC High Quality Category: Computer Components Price: $14.93 - https://t.co/zq71UeZjbi https://t.co/nkRERzI42A'
25 ,b'ZUOYA 5500 DPI Gaming Mou is now available in our shop for only $14.80. Buy it now  https://t.co/tq7xgg4bkG https://t.co/OBK2x7U2BO'
26 ,"b'@MaddieRooster All computer mice are filled with corn, this one is just naked.'"
27 ,b'Top 10 Best Computer Mice  https://t.co/dwjRfz9qzs https://t.co/AalbPKtyr5'
28 ,b'Top 10 Best Computer Keyboards  https://t.co/NA7GZslBsp https://t.co/q6FzPY8UuG'
29 ,b'Top 10 Best Computer Keyboard &amp; Mice Accessories  https://t.co/xQVYgMupys https://t.co/T8oLjqE1RH'
30 ,b'Top 10 Best Computer Keyboard &amp; Mouse Combos  https://t.co/iPbTiBpbrD https://t.co/Gzb1tL3y4H'
31 ,b'Professional Wired Gaming Mouse 5500 DPI Adjustable 7 Buttons Cable USB LED Optical Gamer Mouse For PC Computer Game Mice X7 https://t.co/pWniIchkc2\n#electronics|#gadgets|#home|#lifestyle https://t.co/A41CACsrhs'
32 ,"b'@Hookzilla I swear to you and everyone reading this that I thought these were mice at first, like computer mice.'"
33 ,b'(Wireless Gaming Mouse Rechargeable Wireless/Wired Optical Game Mice with 9 Button 4 Levels DPI 2.4G Wireless Mobile Mice for Notebook Computer Laptop Desktop Mac Pro (F-15 New version 3000mAh)) has been discounted on eStore - https://t.co/PQ3IbvhmzN https://t.co/7AwUBTzPLs'
34 ,b'@NotRooster @DatoFreddy And how many computer mice have you gone through by now lol'
35 ,"b""Why are computer mice called mice why can't they be called Cats? ##SnappySnarts"""
36 ,b'Jazz Up Your Computer With These 5 Mice And Keyboards - https://t.co/SKIUWKWS9N https://t.co/TkYdXdahB9'
37 ,b'Check out this product \xf0\x9f\x98\x8d imice USB Wireless mouse 2000DPI Adjustable USB 3.0 Receiver Optical Computer Mouse 2.4GHz Ergonomic Mice For Laptop PC Mouse \xf0\x9f\x98\x8d \xf0\x9f\x91\x89\xf0\x9f\x91\x89 https://t.co/hBpaRP6KZd https://t.co/0i3ySTEO4e'
38 ,b'Check out Ergonomic Wired Gaming Mouse 7 Button 5500 DPI LED USB Computer Mouse Gamer Mice #iMice https://t.co/0zUvz7E9t8 via @eBay'
39 ,b'For PC Laptop Wireless Mouse Gaming Mice Adjustable 3200DPI USB Receiver Optical Mouse Sem Fio Mini Portable Play Computer Games https://t.co/72USSWDnRj\n#tech|#electronics|#gadgets|#musthave https://t.co/AH8XBz5p23'
40 ,"b""Why are computer mice called mice why can't they be called Cats? ##SnappySnarts"""
41 ,"b""@Kyle8315 @ShannyGasm Slartibartfast knows. The Mice told him. The Vogons don't care. And we can't see it because we are just the computer bits!"""
42 ,"b'@graveyardmuppet In computer terms, a mouse is a corded or wireless device that moves your computer\'s cursor while you move the mouse. In most cases, the plural of mouse is ""mice,"" but more than one computer mouse can also be called ""mouses.""'"
43 ,b'Is the plural for a computer mouse still mice'
44 ,b'imice USB Wireless mouse 2000DPI Adjustable USB 3.0 Receiver Optical Computer Mouse 2.4GHz Ergonomic Mice For Laptop PC Mouse\n\n #toys #kids #clothing #jewelry #menfashion #necklaces #womenshoes #meenishop https://t.co/yApX8vYgzt'
45 ,b'Please read today\xe2\x80\x99s extra annoying edition of Punt / Counterpunt: https://t.co/09a139d6no. \n\nI wrote mostly about computer mice from the mid 90\xe2\x80\x99s and a little about how brutal Army\xe2\x80\x99s style of play is https://t.co/dBnxVm6oqw'
46 ,b'the adventures of a banker who has an eccentric obsession with computer mice'
47 ,"b""Why are computer mice called mice why can't they be called Cats? ##SnappySnarts"""
48 ,"b'Zelotes 12 Programmable Buttons MMO Gaming Mouse,8 Adjustable Weights,4000 DPI Up to 8000DPI by the Software ,Multi-Modes LED lights USB Wired Mice for Gamer,PC,Laptop,Computer,Black https://t.co/eVAexnX8qs https://t.co/XuKOg1PqK6'"
49 ,"b""@amityminti @bburied @Iegndz and here I am nerding out about computer mice writing full on essays. Who's the real clown -_-"""
50 ,"b'@hiboz1875 @hiboz1875, Thanks for that. Unfortunately, they do not accept TV for recycling. The accept desktops, laptops, computer mice, monitors, printers, scanners, multifunction printers, keyboards, computer power supplies, printed circuit boards, motherboards, disks and CD drives. ~GB'"
51 ,b'https://t.co/T0yJu6lwto Up to 30% off Logitech Computer Accessories  #PC #Categories #PCVideoGames #Mice #KeyboardsMiceInputDevices #Accessories #Products #ComputersAccessories #AMZVersionBlackBronze #Logitech #910005313 #Amazon #Deal https://t.co/0h4mPbDRjx'
52 ,"b""@spencerdbell Once we're 42, we'll know the answer to life, the universe, and eberything!\nOr so I heard from a computer mice built"""
53 ,b'@mrspulido2010 @HelpATeacher These looked like computer mice to me! \xf0\x9f\xa4\xa6\xf0\x9f\x8f\xbb\xe2\x80\x8d\xe2\x99\x80\xef\xb8\x8fLOL https://t.co/BLd8jb0XQh'
54 ,b'The mice finally did it #DouglasAdams https://t.co/t4jiy1iTRn: Sum of three cubes for 42 finally solved\xe2\x80\x94using real life planetary computer. \nhttps://t.co/uq947PBHc3'
55 ,"b'(VyFky 1600DPI 2.4G Slim Wireless Mouse With Nano Receiver,Ortable Mobile Optical Mice for Notebook, PC, Laptop, Computer, Macbook. Black and Blue) has been discounted on eStore - https://t.co/seQZqKSgWz https://t.co/O7UeRsyZrO'"
56 ,b'@lizziegolucky Errr why not this place!? https://t.co/5jksxQimQ7'
57 ,b'100% Original Razer DeathAdder Essential Wired Mouse Professional-Grade Gaming Mouse 6400DPI Optical Sensor Mice for Computer\xc2\xa0PC https://t.co/ulMeF5dl77 https://t.co/UxCUc5al1q'
58 ,"b'y\xe2\x80\x99all remember when computer mice had balls on \xe2\x80\x98em? What a world, man, what a crazy world'"
59 ,b'#smartphone #aksesorisgadget 5G Laser Wireless Silent Touch Mouse Top Design Professional Ergonomic Business Magic Office Mice For PC Laptop Computer https://t.co/EoVTXkbCJz https://t.co/h7wYJzKgxd'
60 ,b'2.4GHz Wireless Mouse USB Optical Scroll Mice for Tablet Laptop Computer Luxury High Quality Computer Accessories https://t.co/O7GWkNwZmp\n#tech|#gadgets|#electronics|#smart https://t.co/SQoFHKqPSt'
61 ,"b'Is the plural of computer mouse, mice?\n""I have two logitech mice""'"
62 ,b'#portable #components 2.4G Wireless/Bluetooth 2 in 1 Mouse Portable Computer 1600 DPIOptical Mouse Foldable Mouse Mini Fold Mice for Laptop PC Desktop https://t.co/PygeQVoEcB https://t.co/xM9iHtoZTJ'
63 ,"b'If you\'re referring to a computer mouse and there are many.. Do you say ""there\'s many mouses over there"" or ""there\'s some mice over there""\n\nWhat is the plural word for a computer mouse?'"
64 ,"b'@joetaylor1239 Ahh ffs, as it is, I cringe at calling more than one computer mouse \xe2\x80\x98mice\xe2\x80\x99'"
65 ,b'Optical LED Game Mice for Computer. 100% brand new and high quality. Comes with 6 buttons and scroll wheel.Ultra-precise Scroll Wheel.\n#mice #gaming #gamingaccessories #gamer #wirelessmouse #ps4 #gamingmouse #gamingmice #gaminglife #videogames #gamingmemes #games #pcgaming https://t.co/9okUXsvJSS'
66 ,"b""Why are computer mice called mice why can't they be called Cats? ##SnappySnarts"""
67 ,b'5th-Gen Wired Vertical Mo is now available in our shop for only $27.26. Buy it now  https://t.co/EBqxO1WpnK https://t.co/8PIgKXntMs'
68 ,b'Really??? Is the plural of a computer mouse also called Mice?? \xf0\x9f\x98\xb2 @OxfordWords @amazonIN #language https://t.co/f3y7EYYw5l'
69 ,"b'Save 20% off on VicTsing MM057 2.4G Wireless Portable Mobile Mouse Optical Mice with USB Receiver, 5 Adjustable DPI Levels, 6 Buttons for Notebook, PC, Laptop, Computer, Macbook - Black - https://t.co/LsrpYbY6xe https://t.co/oJfJZ0KmoJ'"
70 ,"b'My school banned all personal devices in class, so I can\xe2\x80\x99t work on my laptop or even bring my computer mouse to school. The DPIs on the school\xe2\x80\x99s mice are so slow and it\xe2\x80\x99s really bothersome as I use a mouse for photoshop :('"
71 ,b'Novelty nib wipes with bristles to wipe the extra ink off of your fountain pen. From Victorian times. So much more interesting were their desk accessories than ours. All we have is computer mice and plastic pens but they had everything. https://t.co/zsAI6JrVL3'
72 ,"b'Zelotes 12 Programmable Buttons USB Wired Gaming Mouse Mice,4000 DPI Up to 8000DPI by the Software ,Weight Tuning Set,Multi-Modes LED lights for Notebook, PC, Laptop, Computer, Macbook \xe2\x80\x93 Black https://t.co/W6hGFBtQrX https://t.co/tEsNSOVDEW'"
73 ,b'@ferretandbird @rogeragrimes @BrianHonan Infinite Prime Number prediction pattern? Bah. Give me an Infinite Improbability Drive. And a planet sized computer designed by mice'
74 ,b'#hashtag4 3D USB Wired Game Mouse Mice LED Optical 7 Buttons Pro Gamer Computer Mice For Desktop PC Laptop Adjustable Gaming Mouse https://t.co/x6TQgQPmlA https://t.co/zNpay9kMK3'
75 ,"b""husband has introduced daughter (8) to World of Warcraft. \nshe is in the basement screaming at the computer. he is beaming beside her. little sister (6) is outside walking through spiderwebs... I don't know, she loves ska? she's also hunting for mice to adopt.\n\nthis is my family."""
76 ,"b""Why are computer mice called mice why can't they be called Cats? ##SnappySnarts"""
77 ,"b'Solve the puzzle of Rosemary\xe2\x80\x99s misheard words, as she learns Computer-Speak for the classroom!  - https://t.co/l3MSqIvwd3'"
78 ,b'#homevideo #gaming PMW3325 Dual Mode Gaming Mouse Wired and Wireless 5000 DPI 8 Buttons PUBG Computer Mouse Mice for FPS PC Laptop Gamer https://t.co/m2JxSVqI1u https://t.co/kT9XzRrCUx'
79 ,b'Rapoo 8200P Multimedia Wireless Keyboard Mouse Combos with Fashionable Ultra Thin Whaterproof Silent Mice for Computer Gaming\xc2\xa0TV https://t.co/6V7FqcUAJk https://t.co/oMmLXcKHCq'
80 ,"b'Hey, check out this product!\n\n\xf0\x9f\x98\x8d Rapoo 5G Laser Wireless Silent Touch Mouse Top Design Professional Ergonomic Business Magic Office Mice For PC Laptop Computer \xf0\x9f\x98\x8d \n\n\xf0\x9f\x91\x8d Shop Accepts Cryptos!\n\xf0\x9f\x91\x8d ALL Items are On-Sale up to 50% OFF!\n\n\xf0\x9f\x91\x89\xf0\x9f\x91\x89 https://t.co/sTgcw70KYY https://t.co/KLIPhuqzTC'"
81 ,"b""@frostyZK 1. What is it I can't really see it that well in the pic 2. What's the point of it 3. How do you do it, all vids on yt are actual mice instead of computer mice lmao"""
82 ,"b""@LacosteDota That's why we have computer mice looking like this: https://t.co/88E77Q0Y7s"""
83 ,"b""Why are computer mice called mice why can't they be called Cats? ##SnappySnarts"""
84 ,"b'Victsing Latest Programmable Wireless Mouse, 2.4G Portable Mobile Mouse Optical Mice with USB Receiver, 6 Adjustable DPI Levels, 5 Programmable Buttons for Notebook, PC, Laptop, Computer, Macbook - https://t.co/A1OFlIfWOk https://t.co/bCsvTVPXTR'"
85 ,"b'Petition to call computer mice, computer rats instead'"
86 ,"b'Computer equipment covered in dirt, dust and #food can start to malfunction and become unresponsive, causing frustration amongst staff\n\n#London Computer Cleaning is the solution!\nWe remove grime and #bacteria on keyboards, mice etc with no disruption\n\nWeb: https://t.co/TPbTzRIm4j https://t.co/rH1JRbmMP7'"
87 ,"b'@Joseph_A_Rios @MartinRobo123 @godless_rhi @laalex2 there is more proof that the world began in an explosion, more proof of dinosaurs, more proof of evolution. If all that is required to prove that you are correct, then there is an equal amount of proof that the Earth is a giant computer, created at the request of sentient mice'"
88 ,"b'From 3Dconnexion  &lt;--\n\nHey Architizer, thanks for the mention\xf0\x9f\x98\x81\nhttps://t.co/xTutjePzaN'"
89 ,"b'Hey @Architizer, thanks for the mention\xf0\x9f\x98\x81\nhttps://t.co/KzwD1mWFhR'"
90 ,"b'@yokoono Emails, sending emails, receiving emails, deleting email, I could go on. (Do...). The web, using a mouse, mices, using mice. Clicking, double clicking. The computer screen, of course. The keyboard.....the bit that goes on the floor down there.'"
91 ,b'Wireless Mouse 1200DPI 2.4GHz Computer Portable Gaming Mice Adjustable USB Receiver Optical\n 28.70 \xe2\x82\xac and FREE Shipping \nShippedsale https://t.co/yYNXubyIBQ'
92 ,b'@GDZentrith @envylol_ I swear to fuck if you don\xe2\x80\x99t finish this I will force feed you computer mice'
93 ,"b'USB Gaming Mouse Wired Game Computer Mice with 6 Buttons for PC,Gamer https://t.co/PwTr3zgseI https://t.co/c24Em0KKq4'"
94 ,b'Portable Bluetooth 3.0 Wireless Mouse High Speed Optical Mouse 2400DPI 6 Button Ergonomic Computer Mice for PC Laptop Tablet Category: Computer Components Price: $6.08 - https://t.co/ivGYYu7xcL https://t.co/6CmTSvXDlI'
95 ,b'#hashtag1 USB Wireless mouse 2000DPI Adjustable Receiver Optical Computer Mouse 2.4GHz Ergonomic Mice For Laptop PC Mouse https://t.co/PUyuirvORO'
96 ,b'Gaming Mouse Adjustable Wired Optical LED Computer Mice USB Cable Mouse\n \xe2\x82\xac and FREE Shipping \nShippedsale https://t.co/qgV5qMWYeO'
97 ,b'#tech #gadgets Noiseless Wireless Mouse Optical Mouse Gaming Silent usb rechargeable Mice 1800dpi 7 Color LED Mouse For PC Laptop Computer https://t.co/DLL3oViz80 https://t.co/F4MbcmtFkM'
98 ,b'Does anyone have a recommendation for a computer mouse for a small kid (7yo)? All the mice I have hurt her wrist.'
99 ,"b""Going back to school shopping tonight? Do you have your computer? Don't forget your mouse! \n.\n.\n.\nMice can be friendly, intelligent, sociable pets. Come by GHS and adopt your future pet mouse today! \n#adopt #mice #backtoschool #mouse https://t.co/MFditxUH9w"""
100,b'10 Top Best Sports Fan Computer Mice https://t.co/EmQwIgooYG https://t.co/eResdF0klq'
101,b'Computer Alert from award-winning Sherrill S. Cannon: Mice &amp; Spiders &amp; Webs\xe2\x80\xa6Oh My! Good listening skills required!  - https://t.co/l3MSqIvwd3'
102,b'Sometimes I miss cleaning the roller ball in old computer mice. Have a good one!'
103,"b""@finalmouse True art has no purpose other than itself. You make computer mice, and can't even ship them on time. Shut up and ship the mice."""
104,"b""Why are computer mice called mice why can't they be called Cats? ##SnappySnarts"""
105,"b'(Slim Wireless Mouse,2.4G Ultra Thin Computer Mouse With Nano Receiver, Noiseless and Silent Click ,Travel Portable Mice for Laptop,Mac,Notebook,PC and Tablet (1Battery Included)) has been discounted on eStore - https://t.co/D0sA6IH0eb https://t.co/UTTHV4ywct'"
106,"b'also: that thing is the computer that controls the big bad weapon, so now we know that the world ends because of a company that makes mice for xtreme gamerz\n\n[disclaimer: i have a razer mouse with a bajillion buttons and i like it very much]'"
107,"b'Wireless Mouse\xe3\x80\x907 Silent Click Buttons\xe3\x80\x91 VicTsing 2.4G Professional Cordless Gaming &amp; Office Optical Mice with 5 Adjustable DPI for Laptop PC Computer Windows Mac etc. \xe2\x80\x93 Super Energy Saving, Red\nMore Info: https://t.co/zZA0lsrUTu\n\nColour Name:Red  Description: . This is a ... https://t.co/YPLHG7KKHv'"
108,b'2017 New Arrival Mouse Sem Fio Portable 2.4Ghz Wireless Optical Gaming Mouse Gamer Mice For PC Laptop Computer Pro Gamer https://t.co/nmGOCuEuE5\n#electronics|#gadgets|#home|#lifestyle https://t.co/0hiGvjtJFN'
109,b'https://t.co/IlNJKvnEfT\n Non Slip Round Galaxy Mouse Pad Mice Mat For #Laptop Notebook Computer PC Gaming\nPrice: $2.99\n Ends on : 2019-10-02 01:50:07\nView ... https://t.co/0YzfLvjmpl'
110,b'@demanrisu what if click beetles are also making a game.... the clicking comes from their tiny computer mice'
111,b'\xe2\x80\x9cSilent Click USB Wired Gaming Mouse 6 Buttons 3200DPI Mute Optical Computer Mouse Gamer Mice for PC Laptop Notebook Game\xe2\x80\x9d https://t.co/lbPNhO7Ic9\n\n#electronics #technology #tech #3dPrinter #electronic #device #gadgets #camera #Xiaomi #geek #techie #sma\xe2\x80\xa6 https://t.co/upGMgMgHg0 https://t.co/LxQnFod6Ta'
112,b'\xe2\x80\x9cErgonomic Wired Gaming Mouse 7 Button 5500 DPI LED USB Computer Mouse Gamer Mice X7 Silent Mause With Backlight For PC Laptop\xe2\x80\x9d https://t.co/qu1s6Itzyb\n#electronics #technology #tech #3dPrinter #electronic #device #gadgets #camera #mouse #geek #techie #smartwatches #techy https://t.co/6upDU1ZHNR'
113,b'\xe2\x80\x9cWireless Mouse Silent Bluetooth Mouse 4.0 Computer Mause Rechargeable Built-in Battery USB Mice Ergonomic for PC Laptop\xe2\x80\x9d https://t.co/tyiwepODlo\n#electronics #technology #tech #3dPrinter #electronic #device #gadgets #camera #mouse #geek #techie #smartwatches #techy #computers https://t.co/NKCIpwU0Q8'
114,b'\xe2\x80\x9c100% Original Razer DeathAdder Essential Wired Mouse Professional-Grade Gaming Mouse 6400DPI Optical Sensor Mice for Computer PC\xe2\x80\x9d https://t.co/4GHPXIuoc7\n#electronics #technology #tech #3dPrinter #electronic #device #gadgets #camera #mouse #geek #techie #smartwatches #techy https://t.co/rbrTsZFuJh'
115,b'\xe2\x80\x9cSilent Click USB Wired Gaming Mouse 6 Buttons 3200DPI Mute Optical Computer Mouse Gamer Mice for PC Laptop Notebook Game\xe2\x80\x9d https://t.co/lbPNhO7Ic9\n#electronics #technology #tech #3dPrinter #electronic #device #gadgets #camera #Xiaomi #geek #techie #smartwatches #techy https://t.co/MHGamlg2DI'
116,b'\xe2\x80\x9cWireless Mouse Bluetooth Computer Mouse Gamer Silent Mouse Rechargeable Ergonomic Mice Wireless Type C USB Adapter For PC Laptop\xe2\x80\x9d https://t.co/pXXl2RzkZ0  #electronics #technology #tech #3dPrinter #electronic #device #gadgets #camera #Xiaomi #geek #techie #smartwatches #techy https://t.co/wssk1v4mmV'
117,"b""I don't know why computer mice are so hard to find at thrift stores"""
118,b'#aliexpress #\xd0\xb0\xd0\xbb\xd0\xb8\xd1\x8d\xd0\xba\xd1\x81\xd0\xbf\xd1\x80\xd0\xb5\xd1\x81\xd1\x81\n\xe3\x80\x90Professional Wired Gaming Mouse 7 Button 5500 DPI LED Optical USB Computer Mouse Gamer Mice X7 Game Mouse Silent Mause For PC\xe3\x80\x91\n \xe2\x86\x92 https://t.co/dLKrD35UZM'
119,b'100% Original Razer DeathAdder Essential Wired Mouse Professional-Grade Gaming Mouse 6400DPI Optical Sensor Mice for Computer\xc2\xa0PC https://t.co/cJ8cybApIT https://t.co/pOaPP3zx2z'
120,"b'Is the plural of a computer mouse, computer mice? \xf0\x9f\xa4\x94'"
121,b'@AmusorUK https://t.co/ii5pUVCiGw i use this'
122,b'#electronics #technology #tech #gadgets kebidumei Ultra Thin USB 2.4Ghz Wireless Mouse Optical Gaming Slim Receiver Computer For Apple Mac Laptop Power Switch Mice https://t.co/3jYRIUz4NL https://t.co/XWK5HG2IVZ'
123,"b'PICTEK Gaming Mouse Wired [7200 DPI] [Programmable] [Breathing Light] Ergonomic Game USB Computer Mice RGB Gamer Desktop Laptop PC Gaming Mouse, 7 Buttons for Windows 7/8/10/XP Vista Linux, Black  Buy Now https://t.co/eWOqeocuBz https://t.co/PbViUP7FoS'"
124,"b'Swiftpoint has announced the launch of TRACPOINT, a new model of its popular ergonomic pen-grip range of computer mice.\n\nhttps://t.co/gZ8R72ngGz https://t.co/utvYghQI7l'"
125,"b'tecmac Folding 2.4GHz Arc Optical Mini Wireless Mouse with USB Receiver for Laptop, PC Computer, Desktop, Notebook \n~MRP - 1199~\nPRICE - 369\n\nOFFER LINK - https://t.co/4HPyXwsZCl\nMORE - https://t.co/Vqpyvsj73o\nnote - offer till limited period of time\n#tecmac #mouse #wirelessmouse https://t.co/rZy90WMg4i'"
126,b'Question for tech/computery types:\n\nAll PS/2 computer mice have a ball right? No such thing as a optical mouse that used PS/2?'
127,"b'(Gaming Mouse Wired [ Programmable ][ Breathing Light ] [ 3200 DPI ] [ Weight Tuning Set ], ZELOTES PC,Computer Gamer Mice, 6 Buttons for Both Hands- Black.) has been discounted on eStore - https://t.co/N9k0bfC5SW https://t.co/Cu7mjs7rua'"
128,b'@parallelcali Finalmouse are literally the yeezy of computer mice overhyped and overpriced garbage'
129,b'#electronics #technology #tech #gadgets Noiseless Wireless Mouse Optical Mouse Gaming Silent usb rechargeable Mice 2400dpi Built-in Battery For PC Laptop Computer https://t.co/Ama6kf6X10 https://t.co/waGWWhE2WJ'
130,"b'VicTsing MM057 2.4G Wireless Portable Mobile Mouse Optical Mice with USB Receiver, 5 Adjustable DPI Levels, 6 Buttons for Notebook, PC, Laptop, Computer, Macbook - Black:25% off and Free Shipping on Every Order - https://t.co/FIOMYyhXYY https://t.co/WSwTIU4PSr'"
131,"b""Why are computer mice called mice why can't they be called Cats? ##SnappySnarts"""
132,"b'Finally, A &lt;strike&gt;Quality&lt;/strike&gt; Computer Mouse With A Real Spider Mounted In Acrylic Inside https://t.co/aiOnIR03G6'"
133,"b'@DrWilkinsonSci Also, wash your hands regularly (obviously- but the kids don\xe2\x80\x99t, and they touch the same door handles, computer keyboards and mice as you!) Oh and take multivitamins / vitamin c to give your immune system a fighting chance!'"
134,b'@CBethAnderson Hah! I know the answer for those who don\xe2\x80\x99t they must build a intergalactic super computer and have it run by mice. Happy birthday \xf0\x9f\x8e\x81\xf0\x9f\x8e\x8a\xf0\x9f\x8e\x82\xf0\x9f\x8e\x88\xf0\x9f\x8e\x89'
135,b'Are you a good listener?  How can there be spiders and mice in the classroom?  Learn Computer-Speak with Rosemary!  - https://t.co/l3MSqIvwd3'
136,"b'@prchovanec For sure. Mice.  Hubby and his bro keep old computer stuff... (saw stuff in the Smithsonian that they still use, and some attic stuff).  I have labeled boxes ""Mice and Keyboards"".  They have fun and task old stuff to tracking solar flares and other astronomy stuff.'"
137,"b'Is the plural of computer mouse ""mice""?'"
138,b'@rockcock64 Mice as in rodent or as computer dingy'
